[
	{
	"_id": "a-1000",
	"_parentId": "co-1000",
	"_type": "article",
	"_classes": "banner_01",
	"body": "",
	"displayTitle": "",
	"title": ""
},
{
	"_id": "a-2000",
	"_parentId": "co-2000",
	"_type": "article",
	"_classes": "banner_01",
	"body": "",
	"displayTitle": "",
	"title": ""
},
{
	"_id": "a-3000",
	"_parentId": "co-3000",
	"_type": "article",
	"_classes": "banner_01",
	"body": "",
	"displayTitle": "",
	"title": ""
},
{
	"_id": "a-4000",
	"_parentId": "co-4000",
	"_type": "article",
	"_classes": "banner_01",
	"body": "",
	"displayTitle": "",
	"title": ""
},
{
	"_id": "a-5000",
	"_parentId": "co-5000",
	"_type": "article",
	"_classes": "banner_01",
	"body": "",
	"displayTitle": "",
	"title": ""
}
]